[
	{ "value": "Хакасия", "label": "Хакасия" },
	{ "value": "Оренбургская область", "label": "Оренбургская область" },
	{ "value": "Краснодарский край", "label": "Краснодарский край" },
	{ "value": "Башкортостан", "label": "Башкортостан" },
	{ "value": "Татарстан", "label": "Татарстан" },
	{ "value": "Адыгея", "label": "Адыгея" },
	{ "value": "Ростовская область", "label": "Ростовская область" },
	{ "value": "Тыва", "label": "Тыва" },
	{ "value": "Северная Осетия", "label": "Северная Осетия" },
	{ "value": "Свердловская область", "label": "Свердловская область" },
	{ "value": "Чувашия", "label": "Чувашия" },
	{ "value": "Якутия", "label": "Якутия" },
	{ "value": "Алтайский край", "label": "Алтайский край" },
	{ "value": "Владимирская область", "label": "Владимирская область" },
	{ "value": "Сахалинская область", "label": "Сахалинская область" },
	{ "value": "Пермский край", "label": "Пермский край" },
	{ "value": "Белгородская область", "label": "Белгородская область" },
	{ "value": "Тульская область", "label": "Тульская область" },
	{ "value": "Иркутская область", "label": "Иркутская область" },
	{ "value": "Крым", "label": "Крым" },
	{ "value": "Хабаровский край", "label": "Хабаровский край" },
	{ "value": "Чукотский АО", "label": "Чукотский АО" },
	{ "value": "Тверская область", "label": "Тверская область" },
	{ "value": "Кемеровская область", "label": "Кемеровская область" },
	{ "value": "Мурманская область", "label": "Мурманская область" },
	{ "value": "Московская область", "label": "Московская область" },
	{ "value": "Чечня", "label": "Чечня" },
	{ "value": "Мордовия", "label": "Мордовия" },
	{ "value": "Нижегородская область", "label": "Нижегородская область" },
	{ "value": "Саратовская область", "label": "Саратовская область" },
	{ "value": "Приморский край", "label": "Приморский край" },
	{ "value": "Красноярский край", "label": "Красноярский край" },
	{ "value": "Архангельская область", "label": "Архангельская область" },
	{ "value": "Томская область", "label": "Томская область" },
	{ "value": "Астраханская область", "label": "Астраханская область" },
	{ "value": "Челябинская область", "label": "Челябинская область" },
	{ "value": "Вологодская область", "label": "Вологодская область" },
	{ "value": "Бурятия", "label": "Бурятия" },
	{ "value": "Калининградская область", "label": "Калининградская область" },
	{ "value": "Кабардино-Балкария", "label": "Кабардино-Балкария" },
	{ "value": "Калужская область", "label": "Калужская область" },
	{ "value": "Севастополь", "label": "Севастополь" },
	{ "value": "Забайкальский край", "label": "Забайкальский край" },
	{ "value": "Новосибирская область", "label": "Новосибирская область" },
	{ "value": "Ульяновская область", "label": "Ульяновская область" },
	{ "value": "Кировская область", "label": "Кировская область" },
	{ "value": "Пензенская область", "label": "Пензенская область" },
	{ "value": "Амурская область", "label": "Амурская область" },
	{ "value": "Карелия", "label": "Карелия" },
	{ "value": "Ханты-Мансийский АО", "label": "Ханты-Мансийский АО" },
	{ "value": "Еврейская АО", "label": "Еврейская АО" },
	{ "value": "Ставропольский край", "label": "Ставропольский край" },
	{ "value": "Воронежская область", "label": "Воронежская область" },
	{ "value": "Ленинградская область", "label": "Ленинградская область" },
	{ "value": "Орловская область", "label": "Орловская область" },
	{ "value": "Новгородская область", "label": "Новгородская область" },
	{ "value": "Брянская область", "label": "Брянская область" },
	{ "value": "Костромская область", "label": "Костромская область" },
	{ "value": "Дагестан", "label": "Дагестан" },
	{ "value": "Смоленская область", "label": "Смоленская область" },
	{ "value": "Псковская область", "label": "Псковская область" },
	{ "value": "Камчатский край", "label": "Камчатский край" },
	{ "value": "Ивановская область", "label": "Ивановская область" },
	{ "value": "Волгоградская область", "label": "Волгоградская область" },
	{ "value": "Марий Эл", "label": "Марий Эл" },
	{ "value": "Коми", "label": "Коми" },
	{ "value": "Удмуртия", "label": "Удмуртия" },
	{ "value": "Ярославская область", "label": "Ярославская область" },
	{ "value": "Алтай", "label": "Алтай" },
	{ "value": "Калмыкия", "label": "Калмыкия" },
	{ "value": "Липецкая область", "label": "Липецкая область" },
	{ "value": "Ямало-Ненецкий АО", "label": "Ямало-Ненецкий АО" },
	{ "value": "Курганская область", "label": "Курганская область" },
	{ "value": "Курская область", "label": "Курская область" },
	{ "value": "Тамбовская область", "label": "Тамбовская область" },
	{ "value": "Самарская область", "label": "Самарская область" },
	{ "value": "Тюменская область", "label": "Тюменская область" },
	{ "value": "Санкт-Петербург", "label": "Санкт-Петербург" },
	{ "value": "Москва", "label": "Москва" },
	{ "value": "Омская область", "label": "Омская область" },
	{ "value": "Ингушетия", "label": "Ингушетия" },
	{ "value": "Карачаево-Черкесия", "label": "Карачаево-Черкесия" },
	{ "value": "Рязанская область", "label": "Рязанская область" },
	{ "value": "Магаданская область", "label": "Магаданская область" },
	{ "value": "Ненецкий АО", "label": "Ненецкий АО" },
	{
		"value": "Ханты-Мансийский АО — Югра",
		"label": "Ханты-Мансийский АО — Югра"
	}
]
